QM1-Tutorium SoSe23 - 4 Lösungen Dinojudo
…
#4.3
Jurassic_Park %>% 
  select(Length, type) %>% 
  filter(type == "small theropod") %>% 
  arrange(Length)

# A tibble: 59 × 2
   Length type          
    <dbl> <chr>         
 1   0.25 small theropod
 2   0.45 small theropod
 3   0.5  small theropod
 4   0.6  small theropod
 5   0.65 small theropod
 6   0.8  small theropod
 7   0.8  small theropod
 8   0.9  small theropod
 9   1    small theropod
10   1    small theropod
# … with 49 more rows
…
